…
``` r
comp_years <- bray %>%
  full_join(ne_nf_gbif,by = "SciName")
```

``` r
# species recorded by Bray not in GBIF

index <- which(is.na(comp_years$GBIF))

comp_years[index,c("Species","SciName")]
```

    ## # A tibble: 84 × 2
    ##    Species                   SciName              
    ##    <fct>                     <fct>                
    ##  1 Common Loon               Gavia immer          
    ##  2 Horned Grebe              Podiceps auritus     
    ##  3 American Bittern          Botaurus letiginosus 
    ##  4 Great Egret               Ardea alba           
    ##  5 Black-crowned Night-Heron Nycticorax nycticorax
    ##  6 Snow Goose                Anser caerulescens   
    ##  7 Brant                     Branta bernicla      
    ##  8 Green-winged Teal         Anas carolinensis    
    ##  9 Canvasback                Aythya vasilineria   
    ## 10 Red-breasted Merganser    Mergus serrator      
    ## # ℹ 74 more rows

Most of these species are water birds. Many species were missing from
the direct GBIF download, for reasons that are unknown. These include
*Astur cooperii*.

``` r
# species recorded by GBIF not in Bray

index <- which(is.na(comp_years$Bray))

comp_years[index,c("Species","SciName")]
```

    ## # A tibble: 24 × 2
    ##    Species SciName              
    ##    <fct>   <fct>                
    ##  1 <NA>    Branta hutchinsii    
    ##  2 <NA>    Cygnus buccinator    
    ##  3 <NA>    Anas crecca          
    ##  4 <NA>    Aythya americana     
    ##  5 <NA>    Aythya collaris      
    ##  6 <NA>    Aythya marila        
    ##  7 <NA>    Bucephala clangula   
    ##  8 <NA>    Streptopelia decaocto
    ##  9 <NA>    Chordeiles minor     
    ## 10 <NA>    Antrostomus vociferus
    ## # ℹ 14 more rows
